{
  "files": {
    "main.css": "/static/css/main.c5e76dac.chunk.css",
    "main.js": "/static/js/main.4d0e2953.chunk.js",
    "main.js.map": "/static/js/main.4d0e2953.chunk.js.map",
    "runtime-main.js": "/static/js/runtime-main.fd763927.js",
    "runtime-main.js.map": "/static/js/runtime-main.fd763927.js.map",
    "static/css/2.85431177.chunk.css": "/static/css/2.85431177.chunk.css",
    "static/js/2.a6465707.chunk.js": "/static/js/2.a6465707.chunk.js",
    "static/js/2.a6465707.chunk.js.map": "/static/js/2.a6465707.chunk.js.map",
    "static/js/3.9a9538f7.chunk.js": "/static/js/3.9a9538f7.chunk.js",
    "static/js/3.9a9538f7.chunk.js.map": "/static/js/3.9a9538f7.chunk.js.map",
    "index.html": "/index.html",
    "static/css/2.85431177.chunk.css.map": "/static/css/2.85431177.chunk.css.map",
    "static/css/main.c5e76dac.chunk.css.map": "/static/css/main.c5e76dac.chunk.css.map",
    "static/js/2.a6465707.chunk.js.LICENSE.txt": "/static/js/2.a6465707.chunk.js.LICENSE.txt",
    "static/media/pentablet.css": "/static/media/banner-4.161688a0.jpg",
    "static/media/signin.css": "/static/media/bg.bff231e3.jpg"
  },
  "entrypoints": [
    "static/js/runtime-main.fd763927.js",
    "static/css/2.85431177.chunk.css",
    "static/js/2.a6465707.chunk.js",
    "static/css/main.c5e76dac.chunk.css",
    "static/js/main.4d0e2953.chunk.js"
  ]
}